# Stefan Behr
# LING 571
# Homework 1
# output

[Sentence 1: "Work accelerates the growth of muscles."]
2 parses found
[Parse 1]
(S
  (S0
    (T
      (NP (NOM (NN Work)))
      (VP
        (V0
          (V1 (V2 (VBZ accelerates)))
          (NP
            (NP (DT the) (NOM (NN growth)))
            (PP (IN of) (NP (NOM (NNS muscles)))))))))
  (PUNC .))
[Parse 2]
(S
  (S0
    (T
      (NP (NOM (NN Work)))
      (VP
        (V0
          (V0
            (V1 (V2 (VBZ accelerates)))
            (NP (DT the) (NOM (NN growth))))
          (PP (IN of) (NP (NOM (NNS muscles))))))))
  (PUNC .))

[Sentence 2: "Muscles grow in response to work."]
2 parses found
[Parse 1]
(S
  (S0
    (T
      (NP (NOM (NNS Muscles)))
      (VP
        (V0
          (V0
            (V0 (V1 (V2 (VBP grow))))
            (PP (IN in) (NP (NOM (NN response)))))
          (PP (TO to) (NP (NOM (NN work))))))))
  (PUNC .))
[Parse 2]
(S
  (S0
    (T
      (NP (NOM (NNS Muscles)))
      (VP
        (V0
          (V0 (V1 (V2 (VBP grow))))
          (PP
            (IN in)
            (NP
              (NP (NOM (NN response)))
              (PP (TO to) (NP (NOM (NN work))))))))))
  (PUNC .))

[Sentence 3: "An average adult male is made up of 45% skeletal muscle and an average adult female is made up of 35% skeletal muscle."]
1 parses found
[Parse 1]
(S
  (S0
    (T
      (NP
        (DT An)
        (NOM (JJ average) (NOM (JJ adult) (NOM (NN male)))))
      (VP
        (AUX is)
        (V0
          (V0 (V1 (V2 (VBN made)) (RP up)))
          (PP
            (IN of)
            (NP
              (NOM
                (JJ (CD 45) (PUNC %))
                (NOM (JJ skeletal) (NOM (NN muscle)))))))))
    (CC and)
    (S0
      (T
        (NP
          (DT an)
          (NOM (JJ average) (NOM (JJ adult) (NOM (NN female)))))
        (VP
          (AUX is)
          (V0
            (V0 (V1 (V2 (VBN made)) (RP up)))
            (PP
              (IN of)
              (NP
                (NOM
                  (JJ (CD 35) (PUNC %))
                  (NOM (JJ skeletal) (NOM (NN muscle)))))))))))
  (PUNC .))

[Sentence 4: "The pyramidal motor system controls voluntary movements."]
1 parses found
[Parse 1]
(S
  (S0
    (T
      (NP
        (DT The)
        (NOM (JJ pyramidal) (NOM (JJ motor) (NOM (NN system)))))
      (VP
        (V0
          (V1 (V2 (VBZ controls)))
          (NP (NOM (JJ voluntary) (NOM (NNS movements))))))))
  (PUNC .))

[Sentence 5: "Old people are at risk for arthritis."]
2 parses found
[Parse 1]
(S
  (S0
    (T
      (NP (NOM (JJ Old) (NOM (NNS people))))
      (VP
        (V0
          (V0 (V1 (V2 (VBP are))))
          (PP
            (IN at)
            (NP
              (NP (NOM (NN risk)))
              (PP (IN for) (NP (NOM (NN arthritis))))))))))
  (PUNC .))
[Parse 2]
(S
  (S0
    (T
      (NP (NOM (JJ Old) (NOM (NNS people))))
      (VP
        (V0
          (V0
            (V0 (V1 (V2 (VBP are))))
            (PP (IN at) (NP (NOM (NN risk)))))
          (PP (IN for) (NP (NOM (NN arthritis))))))))
  (PUNC .))

[Sentence 6: "Dr David Cook is a researcher of the motor system."]
2 parses found
[Parse 1]
(S
  (S0
    (T
      (NP (NNP (TITLE Dr) (NAME (FN David) (LN Cook))))
      (VP
        (V0
          (V0 (V1 (V2 (VBZ is))) (NP (DT a) (NOM (NN researcher))))
          (PP
            (IN of)
            (NP (DT the) (NOM (JJ motor) (NOM (NN system)))))))))
  (PUNC .))
[Parse 2]
(S
  (S0
    (T
      (NP (NNP (TITLE Dr) (NAME (FN David) (LN Cook))))
      (VP
        (V0
          (V1 (V2 (VBZ is)))
          (NP
            (NP (DT a) (NOM (NN researcher)))
            (PP
              (IN of)
              (NP (DT the) (NOM (JJ motor) (NOM (NN system))))))))))
  (PUNC .))

[Sentence 7: "The muscle action is determined by the origin and insertion locations."]
1 parses found
[Parse 1]
(S
  (S0
    (T
      (NP (DT The) (NOM (JJ muscle) (NOM (NN action))))
      (VP
        (AUX is)
        (V0
          (V0 (V1 (V2 (VBN determined))))
          (PP
            (IN by)
            (NP
              (DT the)
              (NOM
                (JJ (JJ origin) (CC and) (JJ insertion))
                (NOM (NNS locations)))))))))
  (PUNC .))

[Sentence 8: "The motor system  is responsible for physical movement."]
1 parses found
[Parse 1]
(S
  (S0
    (T
      (NP (DT The) (NOM (JJ motor) (NOM (NN system))))
      (VP
        (AUX is)
        (AP
          (AP (JJ responsible))
          (PP (IN for) (NP (NOM (JJ physical) (NOM (NN movement)))))))))
  (PUNC .))

[Sentence 9: "Is the muscle tired?"]
1 parses found
[Parse 1]
(S
  (S0 (T (AUX Is) (NP (DT the) (NOM (NN muscle))) (AP (JJ tired))))
  (PUNC ?))

[Sentence 10: "Do you have pain in the muscles on the side of the face?"]
14 parses found
[Parse 1]
(S
  (S0
    (T
      (AUX Do)
      (NP (PRP you))
      (VP
        (V0
          (V0
            (V1 (V2 (VBP have)))
            (NP
              (NP (NOM (NN pain)))
              (PP
                (IN in)
                (NP
                  (NP (DT the) (NOM (NNS muscles)))
                  (PP (IN on) (NP (DT the) (NOM (NN side))))))))
          (PP (IN of) (NP (DT the) (NOM (NN face))))))))
  (PUNC ?))
[Parse 2]
(S
  (S0
    (T
      (AUX Do)
      (NP (PRP you))
      (VP
        (V0
          (V0
            (V1 (V2 (VBP have)))
            (NP
              (NP
                (NP (NOM (NN pain)))
                (PP (IN in) (NP (DT the) (NOM (NNS muscles)))))
              (PP (IN on) (NP (DT the) (NOM (NN side))))))
          (PP (IN of) (NP (DT the) (NOM (NN face))))))))
  (PUNC ?))
[Parse 3]
(S
  (S0
    (T
      (AUX Do)
      (NP (PRP you))
      (VP
        (V0
          (V0
            (V1 (V2 (VBP have)))
            (NP
              (NP (NOM (NN pain)))
              (PP (IN in) (NP (DT the) (NOM (NNS muscles))))))
          (PP
            (IN on)
            (NP
              (NP (DT the) (NOM (NN side)))
              (PP (IN of) (NP (DT the) (NOM (NN face))))))))))
  (PUNC ?))
[Parse 4]
(S
  (S0
    (T
      (AUX Do)
      (NP (PRP you))
      (VP
        (V0
          (V0
            (V0 (V1 (V2 (VBP have))) (NP (NOM (NN pain))))
            (PP
              (IN in)
              (NP
                (NP (DT the) (NOM (NNS muscles)))
                (PP (IN on) (NP (DT the) (NOM (NN side)))))))
          (PP (IN of) (NP (DT the) (NOM (NN face))))))))
  (PUNC ?))
[Parse 5]
(S
  (S0
    (T
      (AUX Do)
      (NP (PRP you))
      (VP
        (V0
          (V0
            (V0
              (V0 (V1 (V2 (VBP have))) (NP (NOM (NN pain))))
              (PP (IN in) (NP (DT the) (NOM (NNS muscles)))))
            (PP (IN on) (NP (DT the) (NOM (NN side)))))
          (PP (IN of) (NP (DT the) (NOM (NN face))))))))
  (PUNC ?))
[Parse 6]
(S
  (S0
    (T
      (AUX Do)
      (NP (PRP you))
      (VP
        (V0
          (V0
            (V0
              (V1 (V2 (VBP have)))
              (NP
                (NP (NOM (NN pain)))
                (PP (IN in) (NP (DT the) (NOM (NNS muscles))))))
            (PP (IN on) (NP (DT the) (NOM (NN side)))))
          (PP (IN of) (NP (DT the) (NOM (NN face))))))))
  (PUNC ?))
[Parse 7]
(S
  (S0
    (T
      (AUX Do)
      (NP (PRP you))
      (VP
        (V0
          (V0 (V1 (V2 (VBP have))) (NP (NOM (NN pain))))
          (PP
            (IN in)
            (NP
              (NP
                (NP (DT the) (NOM (NNS muscles)))
                (PP (IN on) (NP (DT the) (NOM (NN side)))))
              (PP (IN of) (NP (DT the) (NOM (NN face))))))))))
  (PUNC ?))
[Parse 8]
(S
  (S0
    (T
      (AUX Do)
      (NP (PRP you))
      (VP
        (V0
          (V0 (V1 (V2 (VBP have))) (NP (NOM (NN pain))))
          (PP
            (IN in)
            (NP
              (NP (DT the) (NOM (NNS muscles)))
              (PP
                (IN on)
                (NP
                  (NP (DT the) (NOM (NN side)))
                  (PP (IN of) (NP (DT the) (NOM (NN face))))))))))))
  (PUNC ?))
[Parse 9]
(S
  (S0
    (T
      (AUX Do)
      (NP (PRP you))
      (VP
        (V0
          (V0
            (V0 (V1 (V2 (VBP have))) (NP (NOM (NN pain))))
            (PP (IN in) (NP (DT the) (NOM (NNS muscles)))))
          (PP
            (IN on)
            (NP
              (NP (DT the) (NOM (NN side)))
              (PP (IN of) (NP (DT the) (NOM (NN face))))))))))
  (PUNC ?))
[Parse 10]
(S
  (S0
    (T
      (AUX Do)
      (NP (PRP you))
      (VP
        (V0
          (V1 (V2 (VBP have)))
          (NP
            (NP (NOM (NN pain)))
            (PP
              (IN in)
              (NP
                (NP
                  (NP (DT the) (NOM (NNS muscles)))
                  (PP (IN on) (NP (DT the) (NOM (NN side)))))
                (PP (IN of) (NP (DT the) (NOM (NN face)))))))))))
  (PUNC ?))
[Parse 11]
(S
  (S0
    (T
      (AUX Do)
      (NP (PRP you))
      (VP
        (V0
          (V1 (V2 (VBP have)))
          (NP
            (NP (NOM (NN pain)))
            (PP
              (IN in)
              (NP
                (NP (DT the) (NOM (NNS muscles)))
                (PP
                  (IN on)
                  (NP
                    (NP (DT the) (NOM (NN side)))
                    (PP (IN of) (NP (DT the) (NOM (NN face)))))))))))))
  (PUNC ?))
[Parse 12]
(S
  (S0
    (T
      (AUX Do)
      (NP (PRP you))
      (VP
        (V0
          (V1 (V2 (VBP have)))
          (NP
            (NP
              (NP (NOM (NN pain)))
              (PP (IN in) (NP (DT the) (NOM (NNS muscles)))))
            (PP
              (IN on)
              (NP
                (NP (DT the) (NOM (NN side)))
                (PP (IN of) (NP (DT the) (NOM (NN face)))))))))))
  (PUNC ?))
[Parse 13]
(S
  (S0
    (T
      (AUX Do)
      (NP (PRP you))
      (VP
        (V0
          (V1 (V2 (VBP have)))
          (NP
            (NP
              (NP (NOM (NN pain)))
              (PP
                (IN in)
                (NP
                  (NP (DT the) (NOM (NNS muscles)))
                  (PP (IN on) (NP (DT the) (NOM (NN side)))))))
            (PP (IN of) (NP (DT the) (NOM (NN face)))))))))
  (PUNC ?))
[Parse 14]
(S
  (S0
    (T
      (AUX Do)
      (NP (PRP you))
      (VP
        (V0
          (V1 (V2 (VBP have)))
          (NP
            (NP
              (NP
                (NP (NOM (NN pain)))
                (PP (IN in) (NP (DT the) (NOM (NNS muscles)))))
              (PP (IN on) (NP (DT the) (NOM (NN side)))))
            (PP (IN of) (NP (DT the) (NOM (NN face)))))))))
  (PUNC ?))

[Sentence 11: "Scientists finally realized that DNA controls heredity."]
1 parses found
[Parse 1]
(S
  (S0
    (T
      (NP (NOM (NNS Scientists)))
      (VP
        (RBP (RB finally))
        (VP
          (V0
            (V1 (V2 (VBD realized)))
            (CP
              (C that)
              (S0
                (T
                  (NP (NOM (NN DNA)))
                  (VP
                    (V0
                      (V1 (V2 (VBZ controls)))
                      (NP (NOM (NN heredity)))))))))))))
  (PUNC .))

[Sentence 12: "A pain in the abdomen lasting more than a week could be appendicitis."]
2 parses found
[Parse 1]
(S
  (S0
    (T
      (NP
        (NP (DT A) (NOM (NN pain)))
        (PP
          (IN in)
          (NP
            (NP (DT the) (NOM (NN abdomen)))
            (VBG lasting)
            (RBP
              (RBR more)
              (PP (IN than) (NP (DT a) (NOM (NN week))))))))
      (VP (MD could) (VB be) (NP (NOM (NN appendicitis))))))
  (PUNC .))
[Parse 2]
(S
  (S0
    (T
      (NP
        (NP
          (NP (DT A) (NOM (NN pain)))
          (PP (IN in) (NP (DT the) (NOM (NN abdomen)))))
        (VBG lasting)
        (RBP (RBR more) (PP (IN than) (NP (DT a) (NOM (NN week))))))
      (VP (MD could) (VB be) (NP (NOM (NN appendicitis))))))
  (PUNC .))

[Sentence 13: "The muscle is functioning normally."]
1 parses found
[Parse 1]
(S
  (S0
    (T
      (NP (DT The) (NOM (NN muscle)))
      (VP
        (VP (AUX is) (V0 (V1 (V2 (VBG functioning)))))
        (RBP (RB normally)))))
  (PUNC .))

[Sentence 14: "Not that one."]
1 parses found
[Parse 1]
(S (S0 (T (RB Not) (NP (DT that) (NOM (NN one))))) (PUNC .))

[Sentence 15: "Before the discovery of DNA heredity was a mystery."]
2 parses found
[Parse 1]
(S
  (S0
    (PP
      (IN Before)
      (NP
        (NP (DT the) (NOM (NN discovery)))
        (PP (IN of) (NP (NOM (NN DNA))))))
    (S0
      (T
        (NP (NOM (NN heredity)))
        (VP (V0 (V1 (V2 (VBD was))) (NP (DT a) (NOM (NN mystery))))))))
  (PUNC .))
[Parse 2]
(S
  (S0
    (PP (IN Before) (NP (DT the) (NOM (NN discovery))))
    (S0
      (PP (IN of) (NP (NOM (NN DNA))))
      (S0
        (T
          (NP (NOM (NN heredity)))
          (VP
            (V0 (V1 (V2 (VBD was))) (NP (DT a) (NOM (NN mystery)))))))))
  (PUNC .))

[Sentence 16: "The discovery of DNA was a very important milestone."]
1 parses found
[Parse 1]
(S
  (S0
    (T
      (NP
        (NP (DT The) (NOM (NN discovery)))
        (PP (IN of) (NP (NOM (NN DNA)))))
      (VP
        (V0
          (V1 (V2 (VBD was)))
          (NP
            (DT a)
            (NOM (JJ (RB very) (JJ important)) (NOM (NN milestone))))))))
  (PUNC .))

[Sentence 17: "There is much research on the growth of muscles."]
2 parses found
[Parse 1]
(S
  (S0
    (T
      (EX There)
      (BE is)
      (NP
        (NP (NOM (JJ much) (NOM (NN research))))
        (PP
          (IN on)
          (NP
            (NP (DT the) (NOM (NN growth)))
            (PP (IN of) (NP (NOM (NNS muscles)))))))))
  (PUNC .))
[Parse 2]
(S
  (S0
    (T
      (EX There)
      (BE is)
      (NP
        (NP
          (NP (NOM (JJ much) (NOM (NN research))))
          (PP (IN on) (NP (DT the) (NOM (NN growth)))))
        (PP (IN of) (NP (NOM (NNS muscles)))))))
  (PUNC .))

[Sentence 18: "Some muscles have many insertion locations."]
1 parses found
[Parse 1]
(S
  (S0
    (T
      (NP (DT Some) (NOM (NNS muscles)))
      (VP
        (V0
          (V1 (V2 (VBP have)))
          (NP (DT many) (NOM (JJ insertion) (NOM (NNS locations))))))))
  (PUNC .))

[Sentence 19: "Few people privy to the research are willing to dispute it."]
1 parses found
[Parse 1]
(S
  (S0
    (T
      (NP
        (DT Few)
        (NOM
          (NOM (NNS people))
          privy
          (TO to)
          (NP (DT the) (NOM (NN research)))))
      (VP
        (AUX are)
        (AP
          (WILLING willing (TO to) (VB dispute) (NP (NOM (NN it))))))))
  (PUNC .))

[Sentence 20: "Old people consider arthritis a scary disease."]
1 parses found
[Parse 1]
(S
  (S0
    (T
      (NP (NOM (JJ Old) (NOM (NNS people))))
      (VP
        (V0
          (V1 (V2 (VBP consider)))
          (NP (NOM (NN arthritis)))
          (NP (DT a) (NOM (JJ scary) (NOM (NN disease))))))))
  (PUNC .))

Average parses per sentence: 2.0000
Number of unparsed sentences: 0
